<svg width="48" height="48" viewBox="0 0 48 48" fill="none" xmlns="http://www.w3.org/2000/svg">
<path d="M34.9453 13.9453L37.0547 16.0547L19.5 33.6094L10.9453 25.0547L13.0547 22.9453L19.5 29.3906L34.9453 13.9453ZM24 0C26.2031 0 28.3281 0.289062 30.375 0.867188C32.4219 1.42969 34.3359 2.23437 36.1172 3.28125C37.8984 4.3125 39.5156 5.5625 40.9688 7.03125C42.4375 8.48438 43.6875 10.1016 44.7188 11.8828C45.7656 13.6641 46.5703 15.5781 47.1328 17.625C47.7109 19.6719 48 21.7969 48 24C48 26.2031 47.7109 28.3281 47.1328 30.375C46.5703 32.4219 45.7656 34.3359 44.7188 36.1172C43.6875 37.8984 42.4375 39.5234 40.9688 40.9922C39.5156 42.4453 37.8984 43.6953 36.1172 44.7422C34.3359 45.7734 32.4219 46.5781 30.375 47.1562C28.3281 47.7188 26.2031 48 24 48C21.7969 48 19.6719 47.7188 17.625 47.1562C15.5781 46.5781 13.6641 45.7734 11.8828 44.7422C10.1016 43.6953 8.47656 42.4453 7.00781 40.9922C5.55469 39.5234 4.30469 37.8984 3.25781 36.1172C2.22656 34.3359 1.42188 32.4297 0.84375 30.3984C0.28125 28.3516 0 26.2188 0 24C0 21.7969 0.28125 19.6719 0.84375 17.625C1.42188 15.5781 2.22656 13.6641 3.25781 11.8828C4.30469 10.1016 5.55469 8.48438 7.00781 7.03125C8.47656 5.5625 10.1016 4.3125 11.8828 3.28125C13.6641 2.23437 15.5703 1.42969 17.6016 0.867188C19.6484 0.289062 21.7812 0 24 0ZM24 45C25.9219 45 27.7734 44.75 29.5547 44.25C31.3516 43.75 33.0234 43.0469 34.5703 42.1406C36.1328 41.2188 37.5547 40.1172 38.8359 38.8359C40.1172 37.5547 41.2109 36.1406 42.1172 34.5938C43.0391 33.0312 43.75 31.3594 44.25 29.5781C44.75 27.7969 45 25.9375 45 24C45 22.0781 44.75 20.2266 44.25 18.4453C43.75 16.6484 43.0391 14.9766 42.1172 13.4297C41.2109 11.8672 40.1172 10.4453 38.8359 9.16406C37.5547 7.88281 36.1328 6.78906 34.5703 5.88281C33.0234 4.96094 31.3516 4.25 29.5547 3.75C27.7734 3.25 25.9219 3 24 3C22.0781 3 20.2188 3.25 18.4219 3.75C16.6406 4.25 14.9688 4.96094 13.4062 5.88281C11.8594 6.78906 10.4453 7.88281 9.16406 9.16406C7.88281 10.4453 6.78125 11.8672 5.85938 13.4297C4.95312 14.9766 4.25 16.6484 3.75 18.4453C3.25 20.2266 3 22.0781 3 24C3 25.9219 3.25 27.7812 3.75 29.5781C4.25 31.3594 4.95312 33.0312 5.85938 34.5938C6.78125 36.1406 7.88281 37.5547 9.16406 38.8359C10.4453 40.1172 11.8594 41.2188 13.4062 42.1406C14.9688 43.0469 16.6406 43.75 18.4219 44.25C20.2031 44.75 22.0625 45 24 45Z" fill="#838383"/>
</svg>
