<svg width="20" height="21" viewBox="0 0 20 21" fill="none" xmlns="http://www.w3.org/2000/svg">
<path d="M10.9648 9.26953H19.1846V11.3477H10.9648V20.291H8.71973V11.3477H0.666992V9.26953H8.71973V0.623047H10.9648V9.26953Z" fill="white"/>
</svg>
